Good Enough Practices for Text Analysis
…
Good enough practices in scientific computing

Greg Wilson, Jennifer Bryan, Karen Cranston, Justin Kitzes, Lex Nederbragt, Tracy K. Teal

https://doi.org/10.1371/journal.pcbi.1005510

Good enough practices for text analysis

Data management

Data management for bunnies

bunny_tweets
#> # A tibble: 300 × 3
#>    created_at               id full_text                                        
#>    <dttm>                <dbl> <chr>                                            
#>  1 2022-09-23 01:45:52 1.57e18 "Can’t have only one rabbit in our story because…
#>  2 2022-09-24 17:00:28 1.57e18 "George hanging out with his favorite photograph…
#>  3 2022-09-28 05:29:42 1.57e18 "Watercolor Bunny Clipart https://t.co/bg2xYzFhL…
#>  4 2022-09-24 08:59:06 1.57e18 "So many cute bags, choose one to take home😍😍\…
#>  5 2022-09-24 12:01:49 1.57e18 "In some folklore, #rabbits are tricksters that …
#>  6 2022-09-20 16:10:24 1.57e18 "she works haaard for the bunny 🎶\n@RabbitLover…
#>  7 2022-09-23 12:20:17 1.57e18 "Dasher and Fiona are friendly, young #rabbits f…
#>  8 2022-09-25 00:37:24 1.57e18 "Thx the buyer!🥰🐰\n#rabbits #bunny #bunnies \n…
#>  9 2022-09-24 10:45:05 1.57e18 "#InternationalRabbitDay reminder that  rabbits …
#> 10 2022-09-28 19:02:00 1.58e18 "Desiree the bun is the cutest thing you'll see …
#> # … with 290 more rows

Save the raw data!

Data management for bunnies

library(tidytext)

bunny_tweets %>%
    unnest_tokens(word, full_text, token = "tweets")
#> # A tibble: 7,481 × 3
#>    created_at               id word   
#>    <dttm>                <dbl> <chr>  
#>  1 2022-09-23 01:45:52 1.57e18 cant   
#>  2 2022-09-23 01:45:52 1.57e18 have   
#>  3 2022-09-23 01:45:52 1.57e18 only   
#>  4 2022-09-23 01:45:52 1.57e18 one    
#>  5 2022-09-23 01:45:52 1.57e18 rabbit 
#>  6 2022-09-23 01:45:52 1.57e18 in     
#>  7 2022-09-23 01:45:52 1.57e18 our    
#>  8 2022-09-23 01:45:52 1.57e18 story  
#>  9 2022-09-23 01:45:52 1.57e18 because
#> 10 2022-09-23 01:45:52 1.57e18 theyre 
#> # … with 7,471 more rows

Create analysis-friendly data

Data management for bunnies

library(tidytext)

tidy_bunnies <-
    bunny_tweets %>%
    unnest_tokens(word, full_text, token = "tweets")

tidy_bunnies
#> # A tibble: 7,481 × 3
#>    created_at               id word   
#>    <dttm>                <dbl> <chr>  
#>  1 2022-09-23 01:45:52 1.57e18 cant   
#>  2 2022-09-23 01:45:52 1.57e18 have   
#>  3 2022-09-23 01:45:52 1.57e18 only   
#>  4 2022-09-23 01:45:52 1.57e18 one    
#>  5 2022-09-23 01:45:52 1.57e18 rabbit 
#>  6 2022-09-23 01:45:52 1.57e18 in     
#>  7 2022-09-23 01:45:52 1.57e18 our    
#>  8 2022-09-23 01:45:52 1.57e18 story  
#>  9 2022-09-23 01:45:52 1.57e18 because
#> 10 2022-09-23 01:45:52 1.57e18 theyre 
#> # … with 7,471 more rows
…
